"repTeamId","repTeamName","externalId","seConfigId","isDeleted","createdAt","updatedAt"
1001,"CL2","CL2",NA,0,"2015-11-12 18:33:08","2016-12-22 19:23:05"
1002,"CL3","CL3",NA,0,"2015-11-12 18:33:08","2016-12-22 19:23:05"
1003,"XELJANZ","XELJANZ",NA,0,"2015-11-12 18:33:08","2016-10-21 17:56:12"
1004,"CL1","CL1",NA,0,"2015-12-15 01:16:27","2016-12-22 19:23:05"
1005,"ONC","ONC",NA,0,"2016-05-27 18:01:12","2016-12-22 19:23:05"
1006,"CL5","CL5",NA,0,"2016-10-05 22:57:55","2016-10-21 17:56:11"
1007,"GEWH","GEWH",NA,0,"2017-02-15 23:34:01","2017-02-15 23:34:01"
