"interactionId","externalId","interactionTypeId","repActionTypeId","repId","facilityId","startDateTime","duration","wasCreatedFromSuggestion","isCompleted","isDeleted","timeZoneId","startDateLocal","createdAt","updatedAt"
72654,"a04A000000eFNjxIAG",4,3,1505,3386,"2015-06-18 13:30:00",30,0,1,0,"America/New_York","2015-06-18","2015-11-14 14:34:30","2015-11-21 03:09:29"
72675,"a04A000000iVgD3IAK",4,3,1505,3386,"2015-10-02 18:00:00",30,0,1,0,"America/Chicago","2015-10-02","2015-11-14 14:34:31","2016-01-22 17:35:14"
72682,"a04A000000hOJk5IAG",4,3,1505,3386,"2015-10-15 15:00:00",30,0,1,0,"America/Chicago","2015-10-15","2015-11-14 14:34:31","2016-01-22 17:35:41"
72693,"a04A000000jjUrMIAU",4,3,1505,3386,"2015-11-10 15:00:00",30,0,1,0,"America/Chicago","2015-11-10","2015-11-14 14:34:31","2016-01-22 17:35:41"
72833,"a04A000000h6cehIAA",4,3,1505,3386,"2015-09-08 15:00:00",30,0,1,0,"America/Chicago","2015-09-08","2015-11-14 14:34:32","2016-01-22 17:35:22"
72886,"a04A000000gSpiYIAS",4,3,1505,3386,"2015-07-29 18:00:00",30,0,1,0,"America/New_York","2015-07-29","2015-11-14 14:34:32","2015-11-21 03:09:30"
72973,"a04A000000ecr3oIAA",4,3,1505,3386,"2015-07-09 16:00:00",30,0,1,0,"America/New_York","2015-07-09","2015-11-14 14:34:33","2015-11-21 03:09:29"
73100,"a04A000000glTQYIA2",4,3,1505,3386,"2015-08-17 14:30:00",30,0,1,0,"America/New_York","2015-08-17","2015-11-14 14:34:34","2015-11-21 03:09:30"
193961,"a04A000000kZh3AIAS",4,3,1505,3386,"2015-12-02 16:00:00",30,0,1,0,"America/Chicago","2015-12-02","2015-11-26 05:15:08","2016-01-22 17:35:06"
215797,"a04A000000kxQvuIAE",4,3,1505,3386,"2015-12-22 14:00:00",180,0,1,0,"America/Chicago","2015-12-22","2015-12-23 05:12:32","2016-01-22 17:35:32"
220361,"a04A000000lD2M1IAK",4,3,1505,3386,"2016-01-04 14:30:00",30,0,1,0,"America/Chicago","2016-01-04","2016-01-05 05:20:11","2016-01-21 05:20:14"
228935,"a04A000000lHLlyIAG",4,3,1505,3386,"2016-01-13 16:00:00",30,0,1,0,"America/Chicago","2016-01-13","2016-01-12 05:11:46","2016-01-21 05:20:14"
602119,"a04A000000lgXbUIAU",4,3,1505,3386,"2016-02-04 16:00:00",30,0,1,0,"America/Chicago","2016-02-04","2016-02-02 07:21:52","2016-02-05 06:43:09"
966379,"a04A000000m6WLgIAM",4,3,1505,3386,"2016-02-25 16:00:00",30,0,1,0,"America/Chicago","2016-02-25","2016-02-19 05:32:28","2016-02-27 03:59:27"
1095023,"a04A000000maIJwIAM",4,3,1505,3386,"2016-03-14 14:30:00",30,0,1,0,"America/Chicago","2016-03-14","2016-03-14 05:41:25","2016-03-16 04:32:31"
1201907,"a04A000000n6qQKIAY",4,3,1505,3386,"2016-04-05 15:00:00",30,0,1,0,"America/Chicago","2016-04-05","2016-04-06 00:24:11","2016-04-06 00:24:11"
1564211,"a05A000000JV8YwIAL",11,12,1505,NA,"2014-12-05 00:00:00",0,0,1,0,"America/New_York","2014-12-04","2016-05-06 00:54:52","2016-05-06 00:54:52"
1575135,"a05A000000Mr9JtIAJ",11,12,1505,NA,"2015-06-18 00:00:00",0,0,1,0,"America/New_York","2015-06-17","2016-05-06 00:57:05","2016-05-06 00:57:05"
1584233,"a05A000000PLKOkIAP",11,12,1505,NA,"2015-11-10 00:00:00",0,0,1,0,"America/New_York","2015-11-09","2016-05-06 00:58:52","2016-05-06 00:58:52"
1630054,"a05A000000Na0QTIAZ",11,12,1505,NA,"2015-07-29 00:00:00",0,0,1,0,"America/New_York","2015-07-28","2016-05-06 01:08:53","2016-05-06 01:08:53"
1638193,"a05A000000Q6fP0IAJ",11,12,1505,NA,"2016-01-04 00:00:00",0,0,1,0,"America/New_York","2016-01-03","2016-05-06 01:10:26","2016-05-06 01:10:26"
1745753,"a05A000000QFDynIAH",11,12,1505,NA,"2016-01-13 16:00:00",0,0,1,0,"America/Chicago","2016-01-13","2016-05-06 02:08:19","2016-08-28 06:09:25"
1920756,"a04A000000o7H6IIAU",4,3,1505,3386,"2016-05-18 13:00:00",30,0,1,0,"America/Chicago","2016-05-18","2016-05-18 23:13:45","2016-05-20 23:00:51"
1925409,"a05A000000SHaE8IAL",11,12,1505,NA,"2016-05-18 13:00:00",0,0,1,0,"America/Chicago","2016-05-18","2016-05-19 01:55:33","2016-06-26 19:22:35"
2697452,"a04A000000oTKKHIA4",4,3,1505,3386,"2016-06-21 14:30:00",30,0,1,0,"America/Chicago","2016-06-21","2016-06-06 23:28:38","2016-06-22 00:16:07"
4814835,"a05A000000Sh7FvIAJ",11,12,1505,NA,"2016-06-21 14:30:00",0,0,1,0,"America/Chicago","2016-06-21","2016-06-26 19:46:05","2016-06-26 19:46:05"
4927946,"a04A000000p5I76IAE",4,3,1505,3386,"2016-07-15 13:30:00",30,0,1,0,"America/Chicago","2016-07-15","2016-07-01 01:56:20","2016-07-16 03:53:44"
5027571,"a04A000000pDdFsIAK",4,3,1505,3386,"2016-07-08 14:00:00",30,0,1,0,"America/Chicago","2016-07-08","2016-07-08 01:18:17","2016-07-09 00:28:26"
5397414,"a04A000000os73jIAA",4,3,1505,3386,"2016-08-05 18:30:00",30,0,1,0,"America/Chicago","2016-08-05","2016-07-29 23:35:49","2016-08-08 02:04:46"
5743235,"a05A000000TOlcXIAT",11,12,1505,NA,"2016-08-05 18:30:00",0,0,1,0,"America/Chicago","2016-08-05","2016-08-18 21:01:19","2016-08-18 21:01:19"
5827378,"a04A000000nwbRDIAY",4,3,1505,3386,"2016-08-19 15:30:00",30,0,1,0,"America/Chicago","2016-08-19","2016-08-20 00:30:41","2016-08-20 00:30:41"
5859948,"a04A000000ny0YNIAY",4,3,1505,3386,"2016-08-25 18:30:00",30,0,0,1,"America/Chicago","2016-08-25","2016-08-23 00:50:56","2016-08-26 00:03:41"
5942188,"a04A000000qJagaIAC",4,3,1505,3386,"2016-08-25 18:00:00",30,0,1,0,"America/Chicago","2016-08-25","2016-08-26 00:03:41","2016-08-26 00:03:41"
5950472,"a05A000000TuPEkIAN",11,12,1505,NA,"2016-08-25 18:00:00",0,0,1,0,"America/Chicago","2016-08-25","2016-08-26 00:11:49","2016-08-26 00:11:49"
6052063,"a05A000000T4aNjIAJ",11,12,1505,NA,"2016-07-08 14:00:00",0,0,1,0,"America/Chicago","2016-07-08","2016-08-28 08:33:14","2016-08-28 08:33:14"
6475664,"a04A000000qkAVVIA2",4,3,1505,3386,"2017-05-19 02:30:00",30,0,0,1,"America/Chicago","2017-05-19","2016-09-14 22:43:36","2017-05-19 00:15:22"
6475863,"a04A000000qkAI2IAM",4,3,1505,3386,"2017-04-28 03:30:00",30,0,0,1,"America/Chicago","2017-04-28","2016-09-14 22:43:53","2017-04-29 03:40:52"
6475982,"a04A000000pWbjSIAS",4,3,1505,3386,"2016-11-11 16:30:00",30,0,0,1,"America/Chicago","2016-11-11","2016-09-14 22:44:04","2016-11-11 23:42:01"
6476035,"a04A000000pWbazIAC",4,3,1505,3386,"2016-10-28 15:30:00",30,0,0,0,"America/Chicago","2016-10-28","2016-09-14 22:44:06","2016-09-14 22:44:06"
6476508,"a04A000000qk9czIAA",4,3,1505,3386,"2017-02-24 16:30:00",30,0,0,0,"America/Chicago","2017-02-24","2016-09-14 22:44:17","2017-07-20 19:03:38"
6476630,"a04A000000pWbMzIAK",4,3,1505,3386,"2016-10-07 01:30:00",30,0,1,0,"America/Chicago","2016-10-07","2016-09-14 22:44:20","2017-02-25 07:20:11"
6476900,"a04A000000qk8myIAA",4,3,1505,3386,"2016-12-23 04:30:00",30,0,0,0,"America/Chicago","2016-12-23","2016-09-14 22:44:25","2017-01-29 23:10:59"
6476965,"a04A000000qk902IAA",4,3,1505,3386,"2017-01-13 16:30:00",30,0,0,0,"America/Chicago","2017-01-13","2016-09-14 22:44:26","2016-09-14 22:44:26"
6476992,"a04A000000qk8ZaIAI",4,3,1505,3386,"2016-12-02 16:30:00",30,0,0,1,"America/Chicago","2016-12-02","2016-09-14 22:44:27","2016-11-15 01:39:24"
6477091,"a04A000000qk9EzIAI",4,3,1505,3386,"2017-02-03 16:30:00",30,0,0,0,"America/Chicago","2017-02-03","2016-09-14 22:44:28","2016-09-14 22:44:28"
6477284,"a04A000000qkA4jIAE",4,3,1505,3386,"2017-04-07 15:30:00",30,0,0,0,"America/Chicago","2017-04-07","2016-09-14 22:44:31","2017-07-20 19:03:38"
6477304,"a04A000000qk9qwIAA",4,3,1505,3386,"2017-03-17 15:30:00",30,0,0,0,"America/Chicago","2017-03-17","2016-09-14 22:44:31","2017-07-20 19:03:38"
6498261,"a04A000000qlCWnIAM",4,3,1505,3386,"2016-09-16 06:00:00",30,0,1,0,"America/Chicago","2016-09-16","2016-09-15 22:22:59","2017-02-25 07:20:11"
6531820,"a05A000000TzrOEIAZ",11,12,1505,NA,"2016-09-16 18:00:00",0,0,1,0,"America/Chicago","2016-09-16","2016-09-16 22:55:04","2016-09-16 22:55:04"
6750470,"a04A000000r1rgwIAA",4,3,1505,3386,"2016-09-27 07:41:19",30,0,1,0,"America/Chicago","2016-09-27","2016-09-28 05:24:08","2017-02-25 07:20:11"
6754414,"a05A000000UXWBZIA5",11,12,1505,NA,"2016-09-27 19:41:19",0,0,1,0,"America/Chicago","2016-09-27","2016-09-28 05:56:53","2016-09-28 05:56:53"
6957860,"a05A000000UbiHkIAJ",11,12,1505,NA,"2016-10-07 13:30:00",0,0,1,0,"America/Chicago","2016-10-07","2016-10-07 23:22:41","2016-10-07 23:22:41"
7196629,"a04A000000rOD2KIAW",4,3,1505,3386,"2016-10-14 01:30:00",30,0,1,0,"America/Chicago","2016-10-14","2016-11-04 02:36:09","2017-02-25 07:20:11"
7317846,"a05A000000UmUfdIAF",11,12,1505,NA,"2016-10-14 13:30:00",0,0,1,0,"America/Chicago","2016-10-14","2016-11-04 03:38:48","2016-11-04 03:38:48"
126746206,"a04A000000vW9lcIAC",4,3,1505,3386,"2017-07-10 01:00:00",30,0,0,1,"America/Chicago","2017-07-10","2017-05-24 03:27:59","2017-07-14 23:40:41"
130565101,"a04A000000vj8seIAA",4,3,1505,3386,"2017-06-02 02:30:00",30,0,0,1,"America/Chicago","2017-06-02","2017-06-02 01:31:03","2017-06-03 04:46:20"
146945919,"a04A000000vuLO5IAM",4,3,1505,3386,"2017-07-07 15:30:00",30,0,0,0,"America/Chicago","2017-07-07","2017-06-14 00:38:45","2017-07-18 11:50:27"
146946073,"a04A000000vuLxDIAU",4,3,1505,3386,"2017-08-18 15:30:00",30,0,0,1,"America/Chicago","2017-08-18","2017-06-14 00:38:45","2017-08-18 23:56:53"
146946201,"a04A000000vuM4ZIAU",4,3,1505,3386,"2017-07-28 15:30:00",30,0,0,1,"America/Chicago","2017-07-28","2017-06-14 00:38:45","2017-07-29 00:16:18"
146946449,"a04A000000vuMROIA2",4,3,1505,3386,"2017-09-07 17:00:00",30,0,1,0,"America/Chicago","2017-09-07","2017-06-14 00:38:45","2017-09-08 04:00:26"
148295596,"a04A000000vvlElIAI",4,3,1505,6776,"2017-06-15 19:30:00",30,0,1,0,"America/Chicago","2017-06-15","2017-06-16 01:10:46","2017-07-18 11:50:27"
156735265,"a04A000000w8ZROIA2",4,3,1505,3386,"2017-06-27 05:30:00",30,0,0,1,"America/Chicago","2017-06-27","2017-06-26 04:48:38","2017-06-28 03:48:31"
183748968,"a04A000000whZ4UIAU",4,3,1505,3386,"2017-07-19 15:30:00",30,0,0,1,"America/Chicago","2017-07-19","2017-07-20 00:36:30","2017-07-20 03:51:14"
183892918,"a04A000000wi07tIAA",4,3,1505,6776,"2017-07-19 15:30:00",30,0,1,0,"America/Chicago","2017-07-19","2017-07-20 03:51:14","2017-07-20 03:51:14"
199007116,"a3XA0000000t2w4MAA",11,12,1505,NA,"2017-08-07 14:44:34",0,0,1,0,"America/Chicago","2017-08-07","2017-08-07 23:06:50","2017-08-07 23:06:50"
199030538,"a04A000000x581LIAQ",4,3,1505,3386,"2017-08-07 14:00:00",30,0,1,0,"America/Chicago","2017-08-07","2017-08-07 23:09:59","2017-08-09 01:00:20"
201734101,"a04A000000xHN5XIAW",4,3,1505,6776,"2017-08-22 20:00:00",30,0,1,0,"America/Chicago","2017-08-22","2017-08-23 03:10:01","2017-08-23 03:10:01"
202295967,"a04A000000xRj8hIAC",4,3,1505,3386,"2017-09-29 17:30:00",30,0,1,0,"America/Chicago","2017-09-29","2017-08-26 03:58:38","2017-10-01 02:46:24"
202296171,"a04A000000xRjfxIAC",4,3,1505,3386,"2017-11-10 17:30:00",30,0,0,0,"America/Chicago","2017-11-10","2017-08-26 03:58:38","2017-08-26 03:58:38"
202296180,"a04A000000xRjgBIAS",4,3,1505,3386,"2017-12-01 17:30:00",30,0,0,0,"America/Chicago","2017-12-01","2017-08-26 03:58:38","2017-08-26 03:58:38"
202304294,"a04A000000xRjUVIA0",4,3,1505,3386,"2017-10-20 16:30:00",30,0,0,1,"America/Chicago","2017-10-20","2017-08-26 03:58:45","2017-10-13 05:09:58"
202304453,"a04A000000xRk0lIAC",4,3,1505,3386,"2017-12-22 17:30:00",30,0,0,0,"America/Chicago","2017-12-22","2017-08-26 03:58:45","2017-08-26 03:58:45"
202304546,"a04A000000xRk6VIAS",4,3,1505,3386,"2018-01-12 17:30:00",30,0,0,0,"America/Chicago","2018-01-12","2017-08-26 03:58:45","2017-08-26 03:58:45"
202304761,"a04A000000xRkFsIAK",4,3,1505,3386,"2018-02-02 17:30:00",30,0,0,0,"America/Chicago","2018-02-02","2017-08-26 03:58:45","2017-08-26 03:58:45"
202304772,"a04A000000xRkgcIAC",4,3,1505,3386,"2018-03-16 16:30:00",30,0,0,0,"America/Chicago","2018-03-16","2017-08-26 03:58:45","2017-08-26 03:58:45"
202305026,"a04A000000xRkp6IAC",4,3,1505,3386,"2018-04-06 16:30:00",30,0,0,0,"America/Chicago","2018-04-06","2017-08-26 03:58:45","2017-08-26 03:58:45"
202305174,"a04A000000xRkTzIAK",4,3,1505,3386,"2018-02-23 17:30:00",30,0,0,0,"America/Chicago","2018-02-23","2017-08-26 03:58:45","2017-08-26 03:58:45"
202305409,"a04A000000xRl67IAC",4,3,1505,3386,"2018-04-27 16:30:00",30,0,0,0,"America/Chicago","2018-04-27","2017-08-26 03:58:45","2017-08-26 03:58:45"
202305476,"a04A000000xRlbfIAC",4,3,1505,3386,"2018-06-29 16:30:00",30,0,0,0,"America/Chicago","2018-06-29","2017-08-26 03:58:45","2017-08-26 03:58:45"
202305595,"a04A000000xRlJFIA0",4,3,1505,3386,"2018-05-18 16:30:00",30,0,0,0,"America/Chicago","2018-05-18","2017-08-26 03:58:45","2017-08-26 03:58:45"
202305724,"a04A000000xRlSlIAK",4,3,1505,3386,"2018-06-08 16:30:00",30,0,0,0,"America/Chicago","2018-06-08","2017-08-26 03:58:45","2017-08-26 03:58:45"
204131816,"a05A000000ZVuemIAD",11,12,1505,NA,"2017-09-07 17:00:00",0,0,1,0,"America/New_York","2017-09-07","2017-09-08 03:59:10","2017-09-08 03:59:10"
208122433,"a05A000000ZqIrsIAF",11,12,1505,NA,"2017-09-29 17:30:00",0,0,1,0,"America/New_York","2017-09-29","2017-10-01 02:42:04","2017-10-01 02:42:04"
208607469,"a04A000000yBZ9fIAG",4,3,1505,3386,"2017-10-03 16:30:00",30,0,1,0,"America/Chicago","2017-10-03","2017-10-04 02:59:23","2017-10-04 02:59:23"
210958160,"a04A000000yNwuCIAS",4,3,1505,3386,"2017-10-19 15:30:00",30,0,1,0,"America/Chicago","2017-10-19","2017-10-17 02:48:06","2017-10-20 02:35:03"
212711307,"a05A000000aF4RVIA0",11,12,1505,NA,"2017-10-25 19:00:00",0,0,1,0,"America/Chicago","2017-10-25","2017-10-26 05:19:31","2017-10-26 05:19:31"
212793018,"a04A000000yfSIiIAM",4,3,1505,3386,"2017-10-25 19:00:00",60,0,1,0,"America/Chicago","2017-10-25","2017-10-26 05:52:04","2017-10-26 05:52:04"
108219,"a04A000000gi81aIAA",4,3,1505,5470,"2015-08-10 13:00:00",30,0,1,0,"America/New_York","2015-08-10","2015-11-14 14:39:42","2015-11-21 03:52:51"
108350,"a04A000000h6owNIAQ",4,3,1505,5470,"2015-09-10 18:00:00",30,0,1,0,"America/Chicago","2015-09-10","2015-11-14 14:39:43","2016-01-22 17:49:02"
108469,"a04A000000e9uucIAA",4,3,1505,5470,"2015-06-08 17:00:00",30,0,1,0,"America/New_York","2015-06-08","2015-11-14 14:39:44","2015-11-21 03:52:50"
108619,"a04A000000g2P66IAE",4,3,1505,5470,"2015-07-20 13:00:00",30,0,1,0,"America/New_York","2015-07-20","2015-11-14 14:39:45","2015-11-21 03:52:51"
108960,"a04A000000hVXN0IAO",4,3,1505,5470,"2015-09-21 13:30:00",30,0,1,0,"America/Chicago","2015-09-21","2015-11-14 14:39:47","2016-01-22 17:49:17"
109253,"a04A000000jKbLIIA0",4,3,1505,5470,"2015-11-03 21:00:00",30,0,1,0,"America/Chicago","2015-11-03","2015-11-14 14:39:50","2016-01-22 17:49:34"
192108,"a04A000000kXtcmIAC",4,3,1505,5470,"2015-11-24 15:00:00",30,0,1,0,"America/Chicago","2015-11-24","2015-11-24 05:24:12","2016-01-22 17:49:25"
209486,"a04A000000ktFC7IAM",4,3,1505,5470,"2015-12-14 20:00:00",30,0,1,0,"America/Chicago","2015-12-14","2015-12-15 05:26:41","2016-01-22 17:49:17"
221046,"a04A000000lD2faIAC",4,3,1505,5470,"2016-01-05 16:00:00",30,0,1,0,"America/Chicago","2016-01-05","2016-01-05 05:27:33","2016-01-21 05:20:14"
617220,"a04A000000lsJYoIAM",4,3,1505,5470,"2016-02-03 16:00:00",30,0,1,0,"America/Chicago","2016-02-03","2016-02-05 06:47:29","2016-02-05 06:47:29"
945014,"a04A000000m2zMAIAY",4,3,1505,5470,"2016-02-17 14:30:00",30,0,1,0,"America/Chicago","2016-02-17","2016-02-16 06:59:18","2016-02-18 06:30:21"
1064050,"a04A000000mR8pqIAC",4,3,1505,5470,"2016-03-07 14:30:00",30,0,1,0,"America/Chicago","2016-03-07","2016-03-08 05:10:41","2016-03-09 05:12:12"
1136015,"a04A000000mooKBIAY",4,3,1505,5470,"2016-03-23 16:30:00",120,0,1,0,"America/Chicago","2016-03-23","2016-03-22 04:32:58","2016-03-25 05:31:10"
1637004,"a05A000000Pue8SIAR",11,12,1505,NA,"2015-12-14 00:00:00",0,0,1,0,"America/New_York","2015-12-13","2016-05-06 01:10:12","2016-05-06 01:10:12"
1717662,"a05A000000NJ4zoIAD",11,12,1505,NA,"2015-07-20 13:00:00",0,0,1,0,"America/Chicago","2015-07-20","2016-05-06 02:03:16","2016-08-28 05:07:45"
1723541,"a05A000000OUphOIAT",11,12,1505,NA,"2015-09-21 13:30:00",0,0,1,0,"America/Chicago","2015-09-21","2016-05-06 02:04:19","2016-08-28 05:31:47"
1724902,"a05A000000ON3wPIAT",11,12,1505,NA,"2015-09-10 18:00:00",0,0,1,0,"America/Chicago","2015-09-10","2016-05-06 02:04:34","2016-08-28 05:27:47"
1728397,"a05A000000Pa2zrIAB",11,12,1505,NA,"2015-11-24 15:00:00",0,0,1,0,"America/Chicago","2015-11-24","2016-05-06 02:05:13","2016-08-28 05:43:48"
1731538,"a05A000000PAJ4WIAX",11,12,1505,NA,"2015-11-03 21:00:00",0,0,1,0,"America/Chicago","2015-11-03","2016-05-06 02:05:47","2016-08-28 05:44:22"
1748259,"a05A000000QWbyCIAT",11,12,1505,NA,"2016-02-03 16:00:00",0,0,1,0,"America/Chicago","2016-02-03","2016-05-06 02:08:47","2016-08-28 06:22:35"
1849106,"a04A000000nqsuMIAQ",4,3,1505,5470,"2016-05-09 21:00:00",30,0,1,0,"America/Chicago","2016-05-09","2016-05-10 15:13:57","2016-05-10 15:13:57"
1949605,"a04A000000oAK2eIAG",4,3,1505,5470,"2016-05-25 14:00:00",30,0,1,0,"America/Chicago","2016-05-25","2016-05-23 23:15:26","2016-05-25 23:33:43"
2706311,"a04A000000oTKFgIAO",4,3,1505,5470,"2016-06-15 14:00:00",30,0,1,0,"America/Chicago","2016-06-15","2016-06-06 23:33:21","2016-06-17 02:39:30"
4026060,"a04A000000ooguAIAQ",4,3,1505,5470,"2016-06-20 14:30:00",30,0,1,0,"America/Chicago","2016-06-20","2016-06-21 00:10:30","2016-06-22 00:20:01"
4816315,"a05A000000Sf8jnIAB",11,12,1505,NA,"2016-06-15 14:00:00",0,0,1,0,"America/Chicago","2016-06-15","2016-06-26 19:46:16","2016-06-26 19:46:16"
4818862,"a05A000000SgXFOIA3",11,12,1505,NA,"2016-06-20 14:30:00",0,0,1,0,"America/Chicago","2016-06-20","2016-06-26 19:46:44","2016-06-26 19:46:44"
4953296,"a04A000000p6pYnIAI",4,3,1505,5470,"2016-08-01 16:00:00",30,0,1,0,"America/Chicago","2016-08-01","2016-07-02 02:29:35","2016-08-02 04:46:23"
4953313,"a04A000000p6pV0IAI",4,3,1505,5470,"2016-07-29 16:00:00",30,0,0,1,"America/Chicago","2016-07-29","2016-07-02 02:29:35","2016-07-29 23:39:53"
5010235,"a04A000000pCwGOIA0",4,3,1505,5470,"2016-07-06 18:30:00",30,0,1,0,"America/Chicago","2016-07-06","2016-07-07 01:01:23","2016-07-07 04:05:32"
5031565,"a04A000000pDpEiIAK",4,3,1505,5470,"2016-08-24 01:30:00",30,0,1,0,"America/Chicago","2016-08-24","2016-07-08 01:22:16","2017-01-29 23:10:59"
5672579,"a04A000000q3VBhIAM",4,3,1505,5470,"2016-08-15 02:00:00",30,0,1,0,"America/Chicago","2016-08-15","2016-08-15 23:11:25","2017-01-29 23:10:59"
5769208,"a05A000000TMl6oIAD",11,12,1505,NA,"2016-08-01 16:00:00",0,0,1,0,"America/Chicago","2016-08-01","2016-08-18 21:04:42","2016-08-18 21:04:42"
5950647,"a05A000000TtylcIAB",11,12,1505,NA,"2016-08-24 13:30:00",0,0,1,0,"America/Chicago","2016-08-24","2016-08-26 00:11:55","2016-08-26 00:11:55"
6001167,"a05A000000T40VnIAJ",11,12,1505,NA,"2016-07-06 18:30:00",0,0,1,0,"America/Chicago","2016-07-06","2016-08-28 07:06:12","2016-08-28 07:06:12"
6403246,"a04A000000qgO0mIAE",4,3,1505,5470,"2016-09-28 04:30:00",90,0,1,0,"America/Chicago","2016-09-28","2016-09-12 03:59:40","2017-01-29 23:10:59"
6475372,"a04A000000qk8tLIAQ",4,3,1505,5470,"2017-01-03 09:00:00",30,0,0,1,"America/Chicago","2017-01-03","2016-09-14 22:43:27","2017-01-04 01:35:16"
6475416,"a04A000000qk8z5IAA",4,3,1505,5470,"2017-01-13 12:30:00",30,0,0,1,"America/Chicago","2017-01-13","2016-09-14 22:43:29","2017-01-14 09:20:58"
6475784,"a04A000000qk9EtIAI",4,3,1505,5470,"2017-02-03 12:30:00",30,0,0,1,"America/Chicago","2017-02-03","2016-09-14 22:43:46","2017-02-01 03:27:31"
6475793,"a04A000000qk9iVIAQ",4,3,1505,5470,"2017-03-07 05:00:00",30,0,0,1,"America/Chicago","2017-03-07","2016-09-14 22:43:46","2017-03-02 02:24:44"
6475947,"a04A000000qk8gHIAQ",4,3,1505,5470,"2016-12-13 05:00:00",30,0,1,0,"America/Chicago","2016-12-13","2016-09-14 22:44:00","2017-01-29 23:10:59"
6476071,"a04A000000qk96AIAQ",4,3,1505,5470,"2017-01-24 05:00:00",30,0,0,1,"America/Chicago","2017-01-24","2016-09-14 22:44:07","2017-01-13 07:02:16"
6476080,"a04A000000pWbq5IAC",4,3,1505,5470,"2016-11-23 15:30:00",30,0,0,1,"America/Chicago","2016-11-23","2016-09-14 22:44:07","2016-12-10 06:26:41"
6476090,"a04A000000pWbSVIA0",4,3,1505,5470,"2016-10-07 11:30:00",30,0,0,1,"America/Chicago","2016-10-07","2016-09-14 22:44:08","2016-10-07 22:53:58"
6476264,"a04A000000pWbjIIAS",4,3,1505,5470,"2016-11-11 12:30:00",30,0,0,1,"America/Chicago","2016-11-11","2016-09-14 22:44:12","2016-11-11 23:42:01"
6476620,"a04A000000pWbYpIAK",4,3,1505,5470,"2016-10-28 11:30:00",30,0,0,0,"America/Chicago","2016-10-28","2016-09-14 22:44:19","2016-09-14 22:44:19"
6476677,"a04A000000qkAVBIA2",4,3,1505,5470,"2017-05-19 11:30:00",30,0,0,1,"America/Chicago","2017-05-19","2016-09-14 22:44:21","2017-03-02 02:24:44"
6476714,"a04A000000pWbNLIA0",4,3,1505,5470,"2016-10-20 16:00:00",30,0,0,0,"America/Chicago","2016-10-20","2016-09-14 22:44:21","2016-10-10 23:03:45"
6476760,"a04A000000qk8mZIAQ",4,3,1505,5470,"2016-12-23 12:30:00",30,0,0,0,"America/Chicago","2016-12-23","2016-09-14 22:44:23","2016-09-14 22:44:23"
6476856,"a04A000000pWbWEIA0",4,3,1505,5470,"2016-11-01 16:00:00",30,0,0,0,"America/Chicago","2016-11-01","2016-09-14 22:44:24","2016-09-14 22:44:24"
6476905,"a04A000000qkA4ZIAU",4,3,1505,5470,"2017-04-07 11:30:00",30,0,0,1,"America/Chicago","2017-04-07","2016-09-14 22:44:25","2017-03-02 02:24:44"
6476933,"a04A000000qkAHAIA2",4,3,1505,5470,"2017-04-28 11:30:00",30,0,0,1,"America/Chicago","2017-04-28","2016-09-14 22:44:25","2017-03-02 02:24:44"
6477037,"a04A000000qk8ZVIAY",4,3,1505,5470,"2016-12-02 12:30:00",30,0,0,1,"America/Chicago","2016-12-02","2016-09-14 22:44:28","2016-11-15 01:39:03"
6477177,"a04A000000qk9aRIAQ",4,3,1505,5470,"2017-02-24 12:30:00",30,0,0,1,"America/Chicago","2017-02-24","2016-09-14 22:44:30","2017-02-25 07:20:11"
6477237,"a04A000000qk9wpIAA",4,3,1505,5470,"2017-03-28 04:00:00",30,0,0,1,"America/Chicago","2017-03-28","2016-09-14 22:44:30","2017-03-02 02:24:44"
6477279,"a04A000000qk9SzIAI",4,3,1505,5470,"2017-02-14 05:00:00",30,0,0,1,"America/Chicago","2017-02-14","2016-09-14 22:44:31","2017-02-14 03:22:51"
6477300,"a04A000000qk9qmIAA",4,3,1505,5470,"2017-03-17 11:30:00",30,0,0,1,"America/Chicago","2017-03-17","2016-09-14 22:44:31","2017-03-02 02:24:44"
6477302,"a04A000000qkA9QIAU",4,3,1505,5470,"2017-04-18 04:00:00",30,0,0,1,"America/Chicago","2017-04-18","2016-09-14 22:44:31","2017-03-02 02:24:44"
6477461,"a04A000000qkAOjIAM",4,3,1505,5470,"2017-05-09 04:00:00",30,0,0,1,"America/Chicago","2017-05-09","2016-09-14 22:44:34","2017-03-02 02:24:44"
6621495,"a04A000000qxdkgIAA",4,3,1505,5470,"2016-09-22 01:00:00",30,0,1,0,"America/Chicago","2016-09-22","2016-09-21 23:02:00","2017-01-29 23:10:59"
6628911,"a05A000000UUxz6IAD",11,12,1505,NA,"2016-09-22 13:00:00",0,0,1,0,"America/Chicago","2016-09-22","2016-09-21 23:39:01","2016-09-21 23:39:01"
7196897,"a04A000000rkTr9IAE",4,3,1505,5470,"2016-11-02 01:00:00",30,0,1,0,"America/Chicago","2016-11-02","2016-11-04 02:36:17","2017-01-29 23:10:59"
7196925,"a04A000000rXCYtIAO",4,3,1505,5470,"2016-10-26 04:30:00",30,0,1,0,"America/Chicago","2016-10-26","2016-11-04 02:36:18","2017-01-29 23:10:59"
7197243,"a04A000000rhiAxIAI",4,3,1505,5470,"2017-01-13 11:30:00",30,0,0,1,"America/Chicago","2017-01-13","2016-11-04 02:36:28","2017-01-14 09:20:58"
7197259,"a04A000000rWIdtIAG",4,3,1505,5470,"2016-10-21 07:00:00",30,0,1,0,"America/Chicago","2016-10-21","2016-11-04 02:36:29","2017-01-29 23:10:59"
7361282,"a05A000000UoV0SIAV",11,12,1505,NA,"2016-10-21 19:00:00",0,0,1,0,"America/Chicago","2016-10-21","2016-11-04 03:43:20","2016-11-04 03:43:20"
7364691,"a05A000000V2MhCIAV",11,12,1505,NA,"2016-10-26 16:30:00",0,0,1,0,"America/Chicago","2016-10-26","2016-11-04 03:43:38","2016-11-04 03:43:38"
7368443,"a05A000000V4V9KIAV",11,12,1505,NA,"2016-11-02 13:00:00",0,0,1,0,"America/Chicago","2016-11-02","2016-11-04 03:43:59","2016-11-04 03:43:59"
7594022,"a04A000000s6ZNXIA2",4,3,1505,5470,"2016-11-29 18:30:00",30,0,0,1,"America/Chicago","2016-11-29","2016-11-15 01:39:23","2016-12-02 00:47:43"
7883905,"a04A000000sDluAIAS",4,3,1505,5470,"2016-12-01 06:07:11",30,0,1,0,"America/Chicago","2016-12-01","2016-12-02 00:47:23","2017-01-29 23:10:59"
7891131,"a05A000000VTDWFIA5",11,12,1505,NA,"2016-12-01 18:07:11",0,0,1,0,"America/Chicago","2016-12-01","2016-12-02 01:31:29","2016-12-02 01:31:29"
7929228,"a04A000000sS6oTIAS",4,3,1505,5470,"2016-12-05 09:16:44",30,0,1,0,"America/Chicago","2016-12-05","2016-12-06 00:49:49","2017-01-29 23:10:59"
7944093,"a05A000000VUEojIAH",11,12,1505,NA,"2016-12-05 21:16:44",0,0,1,0,"America/Chicago","2016-12-05","2016-12-06 01:32:50","2016-12-06 01:32:50"
8147133,"a05A000000VgNkaIAF",11,12,1505,NA,"2016-12-13 17:00:00",0,0,1,0,"America/Chicago","2016-12-13","2016-12-17 08:03:28","2016-12-17 08:03:28"
25411723,"a04A000000sxxS4IAI",4,3,1505,5470,"2017-01-17 15:30:00",30,0,1,0,"America/Chicago","2017-01-17","2017-01-13 07:02:16","2017-07-20 19:03:38"
28628914,"a05A000000W3DyHIAV",11,12,1505,NA,"2017-01-17 03:30:00",0,0,1,0,"America/Chicago","2017-01-17","2017-01-18 00:10:16","2017-07-08 00:07:25"
36091126,"a05A000000WC2SZIA1",11,12,1505,NA,"2017-01-27 02:30:00",0,0,1,0,"America/Chicago","2017-01-27","2017-01-28 00:56:28","2017-07-08 00:08:20"
36824510,"a04A000000tEtoxIAC",4,3,1505,5470,"2017-01-27 14:30:00",30,0,1,0,"America/Chicago","2017-01-27","2017-01-28 02:19:16","2017-07-20 19:03:38"
42076702,"a04A000000tKNzFIAW",4,3,1505,5470,"2017-01-31 04:00:00",30,0,0,1,"America/Chicago","2017-01-31","2017-01-31 06:35:22","2017-02-01 03:27:31"
60292798,"a04A000000tcsVjIAI",4,3,1505,5470,"2017-02-17 19:00:00",30,0,1,0,"America/Chicago","2017-02-17","2017-02-18 02:24:49","2017-07-20 19:03:38"
60663251,"a05A000000WRx9FIAT",11,12,1505,NA,"2017-02-17 07:00:00",0,0,1,0,"America/Chicago","2017-02-17","2017-02-19 00:02:05","2017-07-08 00:07:29"
64950236,"a04A000000twNsgIAE",4,3,1505,5470,"2017-03-14 03:00:00",30,0,0,1,"America/Chicago","2017-03-14","2017-03-02 02:24:44","2017-03-14 03:14:21"
64950427,"a04A000000twO4cIAE",4,3,1505,5470,"2017-04-07 04:00:00",30,0,0,1,"America/Chicago","2017-04-07","2017-03-02 02:24:44","2017-04-08 01:14:40"
64950532,"a04A000000twOa7IAE",4,3,1505,5470,"2017-06-06 03:00:00",30,0,0,1,"America/Chicago","2017-06-06","2017-03-02 02:24:44","2017-06-06 00:28:51"
64950668,"a04A000000twOFGIA2",4,3,1505,5470,"2017-04-25 03:00:00",30,0,0,1,"America/Chicago","2017-04-25","2017-03-02 02:24:44","2017-04-26 00:47:23"
64950759,"a04A000000twOigIAE",4,3,1505,5470,"2017-06-28 13:30:00",30,0,1,0,"America/Chicago","2017-06-28","2017-03-02 02:24:44","2017-07-18 11:50:27"
64950938,"a04A000000twOPsIAM",4,3,1505,5470,"2017-05-17 13:30:00",30,0,1,0,"America/Chicago","2017-05-17","2017-03-02 02:24:44","2017-07-18 11:50:27"
66449302,"a04A000000tz3fWIAQ",4,3,1505,5470,"2017-03-09 15:00:00",60,0,1,0,"America/Chicago","2017-03-09","2017-03-07 07:41:58","2017-07-20 19:03:38"
68505962,"a05A000000WlBGVIA3",11,12,1505,NA,"2017-03-09 03:00:00",0,0,1,0,"America/Chicago","2017-03-09","2017-03-10 07:51:01","2017-03-10 07:51:01"
76274746,"a04A000000uIXUhIAO",4,3,1505,5470,"2017-04-07 04:00:00",150,0,0,1,"America/Chicago","2017-04-07","2017-03-21 01:35:07","2017-04-08 01:14:40"
81269649,"a04A000000uUJgJIAW",4,3,1505,5470,"2017-03-24 19:54:36",30,0,1,0,"America/Chicago","2017-03-24","2017-03-25 03:56:13","2017-07-20 19:03:38"
88923466,"a04A000000ugDuVIAU",4,3,1505,100224,"2017-04-07 16:30:00",90,0,1,0,"America/Chicago","2017-04-07","2017-04-08 01:14:40","2017-07-20 19:03:38"
111462731,"a04A000000v2rnZIAQ",4,3,1505,5470,"2017-04-26 14:00:00",30,0,1,0,"America/Chicago","2017-04-26","2017-04-26 23:50:15","2017-07-20 19:03:38"
124831318,"a05A000000XnFqKIAV",11,12,1505,NA,"2017-05-17 01:30:00",0,0,1,0,"America/Chicago","2017-05-17","2017-05-17 23:27:27","2017-05-17 23:27:27"
130565104,"a04A000000vj9aSIAQ",4,3,1505,5470,"2017-06-01 14:30:00",30,0,1,0,"America/Chicago","2017-06-01","2017-06-02 01:31:03","2017-07-18 11:50:27"
131066913,"a05A000000Y0ZhHIAV",11,12,1505,NA,"2017-06-01 02:30:00",0,0,1,0,"America/Chicago","2017-06-01","2017-06-02 01:32:38","2017-06-02 01:32:38"
146945978,"a04A000000vuLqpIAE",4,3,1505,5470,"2017-08-08 16:00:00",30,0,0,1,"America/Chicago","2017-08-08","2017-06-14 00:38:45","2017-08-07 23:09:59"
146946098,"a04A000000vuLyRIAU",4,3,1505,5470,"2017-07-17 13:30:00",30,0,1,0,"America/Chicago","2017-07-17","2017-06-14 00:38:45","2017-07-18 11:50:27"
146946339,"a04A000000vuMEYIA2",4,3,1505,5470,"2017-08-29 16:00:00",30,0,0,1,"America/Chicago","2017-08-29","2017-06-14 00:38:45","2017-08-26 03:58:38"
172318120,"a05A000000WuF2vIAF",11,12,1505,NA,"2017-03-24 07:54:36",0,0,1,0,"America/Chicago","2017-03-24","2017-07-08 00:08:46","2017-07-08 00:08:46"
181899970,"a05A000000YhqRRIAZ",11,12,1505,NA,"2017-07-17 13:30:00",0,0,1,0,"America/Chicago","2017-07-17","2017-07-18 03:21:49","2017-07-19 02:33:22"
193142922,"a04A000000wr07QIAQ",4,3,1505,5470,"2017-07-27 17:00:00",30,0,1,0,"America/Chicago","2017-07-27","2017-07-28 00:50:55","2017-07-28 03:23:45"
193261293,"a05A000000YuCpQIAV",11,12,1505,NA,"2017-07-27 17:00:00",0,0,1,0,"America/Chicago","2017-07-27","2017-07-28 03:23:06","2017-07-28 03:23:06"
198441728,"a04A000000x3S0pIAE",4,3,1505,5470,"2017-08-03 17:30:00",30,0,1,0,"America/Chicago","2017-08-03","2017-08-04 01:53:35","2017-08-04 01:53:35"
202295947,"a04A000000xRj4sIAC",4,3,1505,5470,"2017-11-21 16:00:00",30,0,0,0,"America/Chicago","2017-11-21","2017-08-26 03:58:38","2017-08-26 03:58:38"
202295997,"a04A000000xRja4IAC",4,3,1505,5470,"2017-10-31 15:30:00",30,0,1,0,"America/Chicago","2017-10-31","2017-08-26 03:58:38","2017-11-01 05:14:54"
202296107,"a04A000000xRjE0IAK",4,3,1505,5470,"2018-03-06 16:00:00",30,0,0,0,"America/Chicago","2018-03-06","2017-08-26 03:58:38","2017-08-26 03:58:38"
202296115,"a04A000000xRjEcIAK",4,3,1505,5470,"2017-09-22 17:00:00",30,0,0,1,"America/Chicago","2017-09-22","2017-08-26 03:58:38","2017-09-21 02:53:57"
202296230,"a04A000000xRjHSIA0",4,3,1505,5470,"2017-10-11 15:00:00",30,0,1,0,"America/Chicago","2017-10-11","2017-08-26 03:58:38","2017-10-12 02:32:38"
202304292,"a04A000000xRjuTIAS",4,3,1505,5470,"2017-12-12 16:00:00",30,0,0,0,"America/Chicago","2017-12-12","2017-08-26 03:58:45","2017-08-26 03:58:45"
202304525,"a04A000000xRk53IAC",4,3,1505,5470,"2018-01-02 16:00:00",30,0,0,0,"America/Chicago","2018-01-02","2017-08-26 03:58:45","2017-08-26 03:58:45"
202304778,"a04A000000xRkGjIAK",4,3,1505,5470,"2018-01-23 16:00:00",30,0,0,0,"America/Chicago","2018-01-23","2017-08-26 03:58:45","2017-08-26 03:58:45"
202304793,"a04A000000xRkgZIAS",4,3,1505,5470,"2018-03-27 15:00:00",30,0,0,0,"America/Chicago","2018-03-27","2017-08-26 03:58:45","2017-08-26 03:58:45"
202305096,"a04A000000xRkRDIA0",4,3,1505,5470,"2018-02-13 16:00:00",30,0,0,0,"America/Chicago","2018-02-13","2017-08-26 03:58:45","2017-08-26 03:58:45"
202305314,"a04A000000xRkygIAC",4,3,1505,5470,"2018-04-17 15:00:00",30,0,0,0,"America/Chicago","2018-04-17","2017-08-26 03:58:45","2017-08-26 03:58:45"
202305403,"a04A000000xRl5HIAS",4,3,1505,5470,"2018-05-29 15:00:00",30,0,0,0,"America/Chicago","2018-05-29","2017-08-26 03:58:45","2017-08-26 03:58:45"
202305495,"a04A000000xRlCOIA0",4,3,1505,5470,"2018-05-08 15:00:00",30,0,0,0,"America/Chicago","2018-05-08","2017-08-26 03:58:45","2017-08-26 03:58:45"
202305687,"a04A000000xRlQbIAK",4,3,1505,5470,"2018-06-19 15:00:00",30,0,0,0,"America/Chicago","2018-06-19","2017-08-26 03:58:45","2017-08-26 03:58:45"
206134380,"a05A000000ZeKuaIAF",11,12,1505,NA,"2017-09-20 14:30:00",0,0,1,0,"America/New_York","2017-09-20","2017-09-21 02:52:03","2017-09-21 02:52:03"
206181121,"a04A000000xueFCIAY",4,3,1505,5470,"2017-09-20 14:30:00",30,0,1,0,"America/Chicago","2017-09-20","2017-09-21 02:53:57","2017-09-21 02:53:57"
207665574,"a04A000000y7lNDIAY",4,3,1505,5470,"2017-09-28 15:00:00",30,0,1,0,"America/Chicago","2017-09-28","2017-09-28 05:16:43","2017-10-01 02:46:24"
212644258,"a04A000000yf0YIIAY",4,3,1505,5470,"2017-10-24 18:00:00",30,0,1,0,"America/Chicago","2017-10-24","2017-10-25 05:12:56","2017-10-25 05:12:56"
2184613,"a04A000000mR8sDIAS",4,3,1505,202252,"2016-03-07 19:48:02",30,0,1,0,"America/Chicago","2016-03-07","2016-06-02 23:48:16","2016-06-02 23:48:16"
2186150,"a04A000000mtFPCIA2",4,3,1505,202252,"2016-03-29 18:00:00",30,0,1,0,"America/Chicago","2016-03-29","2016-06-02 23:48:35","2016-06-02 23:48:35"
2187579,"a04A000000nqsvtIAA",4,3,1505,202252,"2016-05-09 19:00:00",30,0,1,0,"America/Chicago","2016-05-09","2016-06-02 23:48:51","2016-06-02 23:48:51"
2188166,"a04A000000m2zMoIAI",4,3,1505,202252,"2016-02-17 15:30:00",30,0,1,0,"America/Chicago","2016-02-17","2016-06-02 23:48:58","2016-06-02 23:48:58"
2190164,"a04A000000mooKlIAI",4,3,1505,202252,"2016-03-23 20:00:00",30,0,1,0,"America/Chicago","2016-03-23","2016-06-02 23:49:24","2016-06-02 23:49:24"
2662133,"a04A000000ktFBxIAM",4,3,1505,202252,"2015-12-14 17:00:00",30,0,1,0,"America/Chicago","2015-12-14","2016-06-03 05:51:42","2016-06-03 05:51:42"
2662239,"a04A000000hCldfIAC",4,3,1505,202252,"2015-09-10 19:00:00",30,0,1,0,"America/Chicago","2015-09-10","2016-06-03 05:51:44","2016-06-03 05:51:44"
2662976,"a04A000000hVXNPIA4",4,3,1505,202252,"2015-09-21 15:21:51",30,0,1,0,"America/Chicago","2015-09-21","2016-06-03 05:52:05","2016-06-03 05:52:05"
2664375,"a04A000000kXtdkIAC",4,3,1505,202252,"2015-11-24 17:00:00",30,0,1,0,"America/Chicago","2015-11-24","2016-06-03 05:52:46","2016-06-03 05:52:46"
2664819,"a04A000000j75H2IAI",4,3,1505,202252,"2015-11-03 14:30:00",150,0,1,0,"America/Chicago","2015-11-03","2016-06-03 05:52:58","2016-06-03 05:52:58"
2697337,"a04A000000oTKIpIAO",4,3,1505,202252,"2016-06-20 17:30:00",30,0,1,0,"America/Chicago","2016-06-20","2016-06-06 23:28:28","2016-06-22 00:15:57"
2697338,"a04A000000oTKETIA4",4,3,1505,202252,"2016-06-15 14:30:00",30,0,0,0,"America/Chicago","2016-06-15","2016-06-06 23:28:28","2016-06-06 23:28:28"
3887408,"a04A000000okr7wIAA",4,3,1505,202252,"2016-06-15 14:30:00",30,0,1,0,"America/Chicago","2016-06-15","2016-06-15 23:52:24","2016-06-17 01:46:19"
4119916,"a05A000000J7w9qIAB",11,12,1505,NA,"2014-11-13 16:00:00",0,0,1,0,"America/Chicago","2014-11-13","2016-06-26 18:23:01","2016-06-26 18:23:01"
4127260,"a05A000000KJgi2IAD",11,12,1505,NA,"2015-02-04 16:00:00",0,0,1,0,"America/Chicago","2015-02-04","2016-06-26 18:23:45","2016-06-26 18:23:45"
4141554,"a05A000000MNkouIAD",11,12,1505,NA,"2015-05-18 15:00:00",0,0,1,0,"America/Chicago","2015-05-18","2016-06-26 18:25:12","2016-06-26 18:25:12"
4154604,"a05A000000ON3x4IAD",11,12,1505,NA,"2015-09-10 19:00:00",0,0,1,0,"America/Chicago","2015-09-10","2016-06-26 18:27:08","2016-06-26 18:27:08"
4155665,"a05A000000OUph4IAD",11,12,1505,NA,"2015-09-21 15:21:51",0,0,1,0,"America/Chicago","2015-09-21","2016-06-26 18:27:14","2016-06-26 18:27:14"
4169693,"a05A000000Qbn0SIAR",11,12,1505,NA,"2016-02-17 15:30:00",0,0,1,0,"America/Chicago","2016-02-17","2016-06-26 18:28:32","2016-06-26 18:28:32"
4185222,"a05A000000RFpaKIAT",11,12,1505,NA,"2016-03-23 20:00:00",0,0,1,0,"America/Chicago","2016-03-23","2016-06-26 18:29:57","2016-06-26 18:29:57"
4194600,"a05A000000S8THxIAN",11,12,1505,NA,"2016-05-09 19:00:00",0,0,1,0,"America/Chicago","2016-05-09","2016-06-26 18:31:01","2016-06-26 18:31:01"
4477899,"a05A000000NJ4ztIAD",11,12,1505,NA,"2015-07-20 15:00:00",0,0,1,0,"America/Chicago","2015-07-20","2016-06-26 19:08:00","2016-06-26 19:08:00"
4511984,"a05A000000RHvfGIAT",11,12,1505,NA,"2016-03-29 18:00:00",0,0,1,0,"America/Chicago","2016-03-29","2016-06-26 19:11:56","2016-06-26 19:11:56"
4811410,"a05A000000Sf8jOIAR",11,12,1505,NA,"2016-06-15 14:30:00",0,0,1,0,"America/Chicago","2016-06-15","2016-06-26 19:45:36","2016-06-26 19:45:36"
4948603,"a04A000000p6pVtIAI",4,3,1505,202252,"2016-07-29 18:30:00",30,0,0,1,"America/Chicago","2016-07-29","2016-07-02 02:25:30","2016-07-29 23:35:40"
5004321,"a04A000000pCwDFIA0",4,3,1505,202252,"2016-07-06 14:30:00",30,0,1,0,"America/Chicago","2016-07-06","2016-07-07 00:56:51","2016-07-07 00:56:51"
5027523,"a04A000000pDpFgIAK",4,3,1505,202252,"2016-08-24 21:30:00",30,0,0,1,"America/Chicago","2016-08-24","2016-07-08 01:18:08","2016-08-26 00:03:34"
5448889,"a04A000000ou1OzIAI",4,3,1505,202252,"2016-08-01 17:30:00",30,0,1,0,"America/Chicago","2016-08-01","2016-08-02 04:42:21","2016-08-02 04:42:21"
5739721,"a05A000000TMl8BIAT",11,12,1505,NA,"2016-08-01 17:30:00",0,0,1,0,"America/Chicago","2016-08-01","2016-08-18 21:00:59","2016-08-18 21:00:59"
5859840,"a04A000000ny0j1IAA",4,3,1505,202252,"2016-09-28 18:30:00",30,0,1,0,"America/Chicago","2016-09-28","2016-08-23 00:50:48","2016-09-29 05:35:34"
5859842,"a04A000000ny0YwIAI",4,3,1505,202252,"2016-08-29 14:00:00",30,0,1,0,"America/Chicago","2016-08-29","2016-08-23 00:50:48","2016-08-31 00:57:20"
6475558,"a04A000000qk9yRIAQ",4,3,1505,202252,"2017-03-29 04:30:00",30,0,0,1,"America/Chicago","2017-03-29","2016-09-14 22:43:33","2017-03-02 02:24:44"
6475610,"a04A000000qkAC4IAM",4,3,1505,202252,"2017-04-19 04:30:00",30,0,0,1,"America/Chicago","2017-04-19","2016-09-14 22:43:34","2017-03-02 02:24:44"
6475647,"a04A000000qkAP9IAM",4,3,1505,202252,"2017-05-10 04:30:00",30,0,0,1,"America/Chicago","2017-05-10","2016-09-14 22:43:34","2017-03-02 02:24:44"
6476003,"a04A000000qk8plIAA",4,3,1505,202252,"2017-01-04 05:30:00",30,0,0,0,"America/Chicago","2017-01-04","2016-09-14 22:44:05","2017-07-01 07:57:57"
6476088,"a04A000000pWbrWIAS",4,3,1505,202252,"2016-11-23 17:30:00",30,0,0,1,"America/Chicago","2016-11-23","2016-09-14 22:44:08","2016-12-10 06:26:53"
6476242,"a04A000000qk8hoIAA",4,3,1505,630440,"2016-12-14 05:30:00",30,0,1,0,"America/Chicago","2016-12-14","2016-09-14 22:44:12","2017-05-27 23:58:40"
6476445,"a04A000000pWbe8IAC",4,3,1505,202252,"2016-11-04 17:00:00",30,0,0,1,"America/Chicago","2016-11-04","2016-09-14 22:44:16","2016-11-05 00:37:45"
6476476,"a04A000000qk97YIAQ",4,3,1505,202252,"2017-01-25 05:30:00",30,0,0,1,"America/Chicago","2017-01-25","2016-09-14 22:44:17","2017-01-13 07:02:16"
6476545,"a04A000000pWbU7IAK",4,3,1505,202252,"2016-10-19 16:30:00",30,0,0,0,"America/Chicago","2016-10-19","2016-09-14 22:44:18","2016-09-14 22:44:18"
6477199,"a04A000000qk9koIAA",4,3,1505,202252,"2017-03-08 05:30:00",30,0,0,1,"America/Chicago","2017-03-08","2016-09-14 22:44:30","2017-03-02 02:24:44"
6477210,"a04A000000qk9UvIAI",4,3,1505,202252,"2017-02-15 05:30:00",30,0,0,1,"America/Chicago","2017-02-15","2016-09-14 22:44:30","2017-02-14 03:22:51"
7197264,"a04A000000rh1w6IAA",4,3,1505,202252,"2016-10-26 19:30:00",30,0,1,0,"America/Chicago","2016-10-26","2016-11-04 02:36:29","2016-11-04 02:36:29"
7197509,"a04A000000rWIhvIAG",4,3,1505,202252,"2016-10-21 19:30:00",30,0,1,0,"America/Chicago","2016-10-21","2016-11-04 02:36:37","2016-11-04 02:36:37"
7371402,"a05A000000UoV1QIAV",11,12,1505,NA,"2016-10-21 19:30:00",0,0,1,0,"America/Chicago","2016-10-21","2016-11-04 03:44:16","2016-11-04 03:44:16"
7376433,"a05A000000V2Ms8IAF",11,12,1505,NA,"2016-10-26 19:30:00",0,0,1,0,"America/Chicago","2016-10-26","2016-11-04 03:44:44","2016-11-04 03:44:44"
7594038,"a04A000000s6ZO6IAM",4,3,1505,202252,"2016-11-29 18:30:00",30,0,0,1,"America/Chicago","2016-11-29","2016-11-15 01:39:28","2016-12-02 00:47:42"
7902753,"a04A000000sEQnwIAG",4,3,1505,630440,"2016-12-02 08:14:21",30,0,1,0,"America/Chicago","2016-12-02","2016-12-03 00:44:27","2017-05-27 23:58:40"
7909166,"a05A000000VThodIAD",11,12,1505,NA,"2016-12-02 20:14:21",0,0,1,0,"America/Chicago","2016-12-02","2016-12-03 01:24:43","2016-12-03 01:24:43"
7929188,"a04A000000sS6vKIAS",4,3,1505,630440,"2016-12-05 09:28:59",30,0,1,0,"America/Chicago","2016-12-05","2016-12-06 00:49:46","2017-05-27 23:58:40"
7944112,"a05A000000VUEsNIAX",11,12,1505,NA,"2016-12-05 21:28:59",0,0,1,0,"America/Chicago","2016-12-05","2016-12-06 01:32:50","2016-12-06 01:32:50"
8147264,"a05A000000VgLfKIAV",11,12,1505,NA,"2016-12-14 17:30:00",0,0,1,0,"America/Chicago","2016-12-14","2016-12-17 08:03:29","2016-12-17 08:03:29"
25411764,"a04A000000sxxWYIAY",4,3,1505,202252,"2017-01-17 18:00:00",30,0,1,0,"America/Chicago","2017-01-17","2017-01-13 07:02:16","2017-07-20 19:03:38"
28629011,"a05A000000W3HC6IAN",11,12,1505,NA,"2017-01-17 06:00:00",0,0,1,0,"America/Chicago","2017-01-17","2017-01-18 00:10:17","2017-07-08 00:07:25"
36019378,"a04A000000tDeb8IAC",4,3,1505,202252,"2017-01-27 20:00:00",30,0,1,0,"America/Chicago","2017-01-27","2017-01-27 06:37:00","2017-07-20 19:03:38"
36092489,"a05A000000WC2SdIAL",11,12,1505,NA,"2017-01-27 08:00:00",0,0,1,0,"America/Chicago","2017-01-27","2017-01-28 00:56:50","2017-07-08 00:08:08"
42076704,"a04A000000tKNzkIAG",4,3,1505,202252,"2017-02-01 04:30:00",30,0,0,1,"America/Chicago","2017-02-01","2017-01-31 06:35:22","2017-02-01 03:27:31"
60292806,"a04A000000tcsZeIAI",4,3,1505,202252,"2017-02-17 08:00:00",30,0,0,1,"America/Chicago","2017-02-17","2017-02-18 02:24:49","2017-02-19 01:22:45"
60663300,"a05A000000WRxA4IAL",11,12,1505,NA,"2017-02-17 04:30:00",0,0,1,0,"America/Chicago","2017-02-17","2017-02-19 00:02:10","2017-07-08 00:05:51"
60753441,"a04A000000tdZr1IAE",4,3,1505,353449,"2017-02-17 16:30:00",180,0,1,0,"America/Chicago","2017-02-17","2017-02-19 01:22:45","2017-07-20 19:03:38"
61501579,"a05A000000WTAlYIAX",11,12,1505,NA,"2017-02-22 02:30:00",0,0,1,0,"America/Chicago","2017-02-22","2017-02-23 02:06:40","2017-07-08 00:08:23"
61835094,"a04A000000to4q6IAA",4,3,1505,353449,"2017-02-22 14:30:00",120,0,1,0,"America/Chicago","2017-02-22","2017-02-23 05:39:05","2017-07-20 19:03:38"
64950207,"a04A000000twNqgIAE",4,3,1505,202252,"2017-03-15 03:30:00",30,0,0,1,"America/Chicago","2017-03-15","2017-03-02 02:24:44","2017-03-14 03:14:21"
64950425,"a04A000000twO49IAE",4,3,1505,202252,"2017-04-07 02:30:00",30,0,0,1,"America/Chicago","2017-04-07","2017-03-02 02:24:44","2017-04-08 01:14:40"
64950552,"a04A000000twOb1IAE",4,3,1505,630440,"2017-06-07 03:30:00",30,0,0,1,"America/Chicago","2017-06-07","2017-03-02 02:24:44","2017-06-06 00:28:51"
64950708,"a04A000000twOGlIAM",4,3,1505,202252,"2017-04-26 04:00:00",30,0,0,1,"America/Chicago","2017-04-26","2017-03-02 02:24:44","2017-04-27 03:26:26"
64950864,"a04A000000twOmhIAE",4,3,1505,202252,"2017-06-28 03:30:00",30,0,0,1,"America/Chicago","2017-06-28","2017-03-02 02:24:44","2017-07-01 07:57:57"
64950936,"a04A000000twOPPIA2",4,3,1505,202252,"2017-05-17 03:30:00",30,0,0,1,"America/Chicago","2017-05-17","2017-03-02 02:24:44","2017-05-17 23:21:48"
68452546,"a04A000000uDfD6IAK",4,3,1505,353449,"2017-03-09 17:30:00",150,0,1,0,"America/Chicago","2017-03-09","2017-03-10 07:48:32","2017-07-20 19:03:38"
68505957,"a05A000000WlBCOIA3",11,12,1505,NA,"2017-03-09 05:30:00",0,0,1,0,"America/Chicago","2017-03-09","2017-03-10 07:51:01","2017-03-10 07:51:01"
76274745,"a04A000000uIXOaIAO",4,3,1505,202252,"2017-04-07 07:00:00",30,0,0,1,"America/Chicago","2017-04-07","2017-03-21 01:35:07","2017-04-08 01:14:40"
81269650,"a04A000000uUK3qIAG",4,3,1505,202252,"2017-03-24 19:51:20",30,0,1,0,"America/Chicago","2017-03-24","2017-03-25 03:56:13","2017-07-20 19:03:38"
88923470,"a04A000000ugHQOIA2",4,3,1505,353449,"2017-04-07 18:00:00",90,0,1,0,"America/Chicago","2017-04-07","2017-04-08 01:14:40","2017-07-20 19:03:38"
89248250,"a05A000000X7ILKIA3",11,12,1505,NA,"2017-04-07 06:00:00",0,0,1,0,"America/Chicago","2017-04-07","2017-04-08 01:24:09","2017-04-08 01:24:09"
111697822,"a04A000000sccM2IAI",4,3,1505,353449,"2017-04-26 14:30:00",90,0,1,0,"America/Chicago","2017-04-26","2017-04-27 03:26:26","2017-07-20 19:03:38"
111791051,"a05A000000XPFqLIAX",11,12,1505,NA,"2017-04-26 02:30:00",0,0,1,0,"America/Chicago","2017-04-26","2017-04-27 03:30:06","2017-04-27 03:30:06"
124731591,"a04A000000vONXmIAO",4,3,1505,353449,"2017-05-17 16:30:00",150,0,1,0,"America/Chicago","2017-05-17","2017-05-17 23:21:48","2017-07-18 11:50:27"
124830186,"a05A000000XnFfoIAF",11,12,1505,NA,"2017-05-17 04:30:00",0,0,1,0,"America/Chicago","2017-05-17","2017-05-17 23:27:27","2017-05-17 23:27:27"
129225792,"a04A000000vhlPYIAY",4,3,1505,630440,"2017-06-01 04:00:00",30,0,0,1,"America/Chicago","2017-06-01","2017-05-31 03:44:00","2017-06-02 01:31:03"
130565106,"a04A000000vj9GJIAY",4,3,1505,353449,"2017-06-01 16:00:00",210,0,1,0,"America/Chicago","2017-06-01","2017-06-02 01:31:03","2017-07-18 11:50:27"
131059059,"a05A000000Y0ZWAIA3",11,12,1505,NA,"2017-06-01 04:00:00",0,0,1,0,"America/Chicago","2017-06-01","2017-06-02 01:32:35","2017-06-02 01:32:35"
146945993,"a04A000000vuLrxIAE",4,3,1505,202252,"2017-07-17 15:00:00",30,0,1,0,"America/Chicago","2017-07-17","2017-06-14 00:38:45","2017-07-18 11:50:27"
146946220,"a04A000000vuM6cIAE",4,3,1505,202252,"2017-08-09 16:30:00",30,0,0,1,"America/Chicago","2017-08-09","2017-06-14 00:38:45","2017-08-07 23:09:59"
146946404,"a04A000000vuML1IAM",4,3,1505,202252,"2017-08-30 16:30:00",30,0,0,1,"America/Chicago","2017-08-30","2017-06-14 00:38:45","2017-08-29 01:29:08"
160209167,"a04A000000wBjxVIAS",4,3,1505,353449,"2017-06-28 14:00:00",210,0,1,0,"America/Chicago","2017-06-28","2017-06-29 01:34:15","2017-07-18 11:50:27"
172318105,"a05A000000WuEtZIAV",11,12,1505,NA,"2017-03-24 07:51:20",0,0,1,0,"America/Chicago","2017-03-24","2017-07-08 00:08:46","2017-07-08 00:08:46"
181892097,"a05A000000YhqSZIAZ",11,12,1505,NA,"2017-07-17 15:00:00",0,0,1,0,"America/Chicago","2017-07-17","2017-07-18 03:21:27","2017-07-19 02:32:33"
193094650,"a05A000000Yu0guIAB",11,12,1505,NA,"2017-07-27 13:30:00",0,0,1,0,"America/Chicago","2017-07-27","2017-07-28 00:50:13","2017-07-28 00:50:13"
193142916,"a04A000000wr05UIAQ",4,3,1505,353449,"2017-07-27 13:30:00",210,0,1,0,"America/Chicago","2017-07-27","2017-07-28 00:50:55","2017-07-28 03:23:45"
198441726,"a04A000000x3RznIAE",4,3,1505,202252,"2017-08-03 15:00:00",30,0,1,0,"America/Chicago","2017-08-03","2017-08-04 01:53:35","2017-08-04 01:53:35"
202295971,"a04A000000xRj8nIAC",4,3,1505,202252,"2018-01-24 16:30:00",30,0,0,0,"America/Chicago","2018-01-24","2017-08-26 03:58:38","2017-08-26 03:58:38"
202296033,"a04A000000xRjb7IAC",4,3,1505,202252,"2017-11-01 15:30:00",30,0,0,1,"America/Chicago","2017-11-01","2017-08-26 03:58:38","2017-10-31 00:17:46"
202296150,"a04A000000xRjFfIAK",4,3,1505,630440,"2017-09-20 16:30:00",30,0,1,0,"America/Chicago","2017-09-20","2017-08-26 03:58:38","2017-09-21 02:53:57"
202296293,"a04A000000xRjjwIAC",4,3,1505,202252,"2017-11-22 16:30:00",30,0,0,0,"America/Chicago","2017-11-22","2017-08-26 03:58:38","2017-08-26 03:58:38"
202296373,"a04A000000xRjmMIAS",4,3,1505,202252,"2017-12-13 16:30:00",30,0,0,0,"America/Chicago","2017-12-13","2017-08-26 03:58:38","2017-08-26 03:58:38"
202304123,"a04A000000xRjQ4IAK",4,3,1505,202252,"2017-10-11 15:30:00",30,0,1,0,"America/Chicago","2017-10-11","2017-08-26 03:58:45","2017-10-12 02:32:38"
202304542,"a04A000000xRk6FIAS",4,3,1505,202252,"2018-01-03 16:30:00",30,0,0,0,"America/Chicago","2018-01-03","2017-08-26 03:58:45","2017-08-26 03:58:45"
202304624,"a04A000000xRkb0IAC",4,3,1505,202252,"2018-03-07 16:30:00",30,0,0,0,"America/Chicago","2018-03-07","2017-08-26 03:58:45","2017-08-26 03:58:45"
202304667,"a04A000000xRkCoIAK",4,3,1505,202252,"2018-02-14 16:30:00",30,0,0,0,"America/Chicago","2018-02-14","2017-08-26 03:58:45","2017-08-26 03:58:45"
202304676,"a04A000000xRkcUIAS",4,3,1505,202252,"2018-03-28 15:30:00",30,0,0,0,"America/Chicago","2018-03-28","2017-08-26 03:58:45","2017-08-26 03:58:45"
202305007,"a04A000000xRkoFIAS",4,3,1505,202252,"2018-05-09 15:30:00",30,0,0,0,"America/Chicago","2018-05-09","2017-08-26 03:58:45","2017-08-26 03:58:45"
202305307,"a04A000000xRky4IAC",4,3,1505,202252,"2018-04-18 15:30:00",30,0,0,0,"America/Chicago","2018-04-18","2017-08-26 03:58:45","2017-08-26 03:58:45"
202305569,"a04A000000xRlHeIAK",4,3,1505,202252,"2018-05-30 15:30:00",30,0,0,0,"America/Chicago","2018-05-30","2017-08-26 03:58:45","2017-08-26 03:58:45"
202305814,"a04A000000xRlYRIA0",4,3,1505,202252,"2018-06-20 15:30:00",30,0,0,0,"America/Chicago","2018-06-20","2017-08-26 03:58:45","2017-08-26 03:58:45"
206124658,"a05A000000ZeKxnIAF",11,12,1505,NA,"2017-09-20 16:30:00",0,0,1,0,"America/New_York","2017-09-20","2017-09-21 02:50:57","2017-09-21 02:50:57"
207665583,"a04A000000y7pOAIAY",4,3,1505,630440,"2017-09-28 13:00:00",30,0,0,1,"America/Chicago","2017-09-28","2017-09-28 05:16:43","2017-10-01 02:46:24"
208130036,"a05A000000Zq1VOIAZ",11,12,1505,NA,"2017-09-28 16:30:00",0,0,1,0,"America/New_York","2017-09-28","2017-10-01 02:44:17","2017-10-01 02:44:17"
208173078,"a04A000000y8pzEIAQ",4,3,1505,353449,"2017-09-28 16:30:00",120,0,1,0,"America/Chicago","2017-09-28","2017-10-01 02:46:24","2017-10-01 02:46:24"
210224313,"a05A000000ZyY4LIAV",11,12,1505,NA,"2017-10-11 15:30:00",0,0,1,0,"America/Chicago","2017-10-11","2017-10-12 05:07:18","2017-10-12 05:07:18"
213494253,"a04A000000yiR37IAE",4,3,1505,202252,"2017-10-31 14:00:00",30,0,1,0,"America/Chicago","2017-10-31","2017-10-31 00:17:46","2017-11-01 05:14:54"
58352290,"a05A000000Vxj4fIAB",11,12,1605,NA,"2017-01-10 05:00:00",0,0,1,0,"America/New_York","2017-01-10","2017-02-16 00:40:23","2017-07-01 07:42:19"
58589560,"a04A000000swPYRIA2",4,3,1605,1924000,"2017-01-10 05:00:00",30,0,1,0,"America/New_York","2017-01-10","2017-02-16 07:53:08","2017-07-01 08:06:12"
58589601,"a04A000000tKNWpIAO",4,3,1605,1924002,"2017-01-30 08:43:39",30,0,1,0,"America/New_York","2017-01-30","2017-02-16 07:53:08","2017-07-01 08:06:12"
58589635,"a04A000000tSm2hIAC",4,3,1605,1924002,"2017-02-09 06:20:58",30,0,1,0,"America/New_York","2017-02-09","2017-02-16 07:53:08","2017-07-01 08:06:12"
68918847,"a04A000000uEyiGIAS",4,3,1605,1924002,"2017-03-15 06:07:57",30,0,1,0,"America/New_York","2017-03-15","2017-03-14 03:14:39","2017-07-01 08:06:12"
83428435,"a04A000000uVuVpIAK",4,3,1605,1924002,"2017-03-28 04:19:01",30,0,1,0,"America/New_York","2017-03-28","2017-03-29 02:08:19","2017-07-01 08:06:12"
112989423,"a04A000000scyz3IAA",4,3,1605,1924002,"2017-04-27 02:56:21",30,0,1,0,"America/New_York","2017-04-27","2017-04-28 07:03:20","2017-07-01 08:06:12"
126564213,"a04A000000vVo0vIAC",4,3,1605,1924002,"2017-05-23 17:19:30",30,0,1,0,"America/New_York","2017-05-23","2017-05-24 00:46:19","2017-07-18 11:54:00"
135823702,"a04A000000vpl4cIAA",4,3,1605,1924002,"2017-06-08 13:21:45",30,0,1,0,"America/New_York","2017-06-08","2017-06-07 02:39:48","2017-07-18 11:54:00"
152431647,"a04A000000w5rkfIAA",4,3,1605,1924002,"2017-06-19 17:54:28",30,0,1,0,"America/New_York","2017-06-19","2017-06-20 01:52:05","2017-07-18 11:54:00"
170306739,"a04A000000wMttFIAS",4,3,1605,1924002,"2017-07-06 14:27:36",30,0,1,0,"America/New_York","2017-07-06","2017-07-06 17:32:38","2017-07-18 11:54:00"
181879427,"a04A000000wbw7PIAQ",4,3,1605,1924002,"2017-07-17 15:16:00",30,0,1,0,"America/New_York","2017-07-17","2017-07-17 23:12:10","2017-07-18 11:54:00"
193953691,"a04A000000wspFnIAI",4,3,1605,1924002,"2017-07-31 15:18:54",30,0,1,0,"America/New_York","2017-07-31","2017-07-31 23:26:37","2017-07-31 23:26:37"
200525921,"a04A000000x8z2qIAA",4,3,1605,1924002,"2017-08-14 18:01:06",30,0,1,0,"America/New_York","2017-08-14","2017-08-15 00:51:25","2017-08-15 00:51:25"
202797011,"a04A000000xE97ZIAS",4,3,1605,1924002,"2017-08-28 18:39:47",30,0,1,0,"America/New_York","2017-08-28","2017-08-30 01:09:15","2017-08-30 01:09:15"
210203678,"a04A000000yKqzbIAC",4,3,1605,1924002,"2017-10-11 17:24:19",30,0,1,0,"America/New_York","2017-10-11","2017-10-12 02:33:39","2017-10-12 02:33:39"
210388514,"a04A000000yLNeAIAW",4,3,1605,1924002,"2017-10-14 16:30:00",30,0,0,1,"America/New_York","2017-10-14","2017-10-13 01:37:12","2017-10-17 02:48:42"
212470031,"a04A000000ye8fLIAQ",4,3,1605,1924002,"2017-10-27 15:30:00",30,0,1,0,"America/New_York","2017-10-27","2017-10-24 05:57:18","2017-10-29 00:45:37"
213224969,"a05A000000aFmieIAC",11,12,1605,NA,"2017-10-27 15:30:00",0,0,1,0,"America/New_York","2017-10-27","2017-10-29 00:42:13","2017-10-29 00:42:13"
58354878,"a05A000000VwNnPIAV",11,12,1605,NA,"2017-01-05 04:35:00",0,0,1,0,"America/New_York","2017-01-05","2017-02-16 00:40:41","2017-07-01 07:42:19"
58589552,"a04A000000sqAtGIAU",4,3,1605,1946783,"2017-01-05 04:35:00",30,0,1,0,"America/New_York","2017-01-05","2017-02-16 07:53:08","2017-07-01 08:06:12"
58589614,"a04A000000tLVPMIA4",4,3,1605,1946782,"2017-02-01 07:19:03",30,0,1,0,"America/New_York","2017-02-01","2017-02-16 07:53:08","2017-07-01 08:06:12"
60352920,"a04A000000tciayIAA",4,3,1605,538573,"2017-02-16 02:00:00",30,0,0,1,"America/New_York","2017-02-16","2017-02-18 02:26:19","2017-02-24 21:19:03"
66367030,"a04A000000tyvLYIAY",4,3,1605,1946782,"2017-03-08 05:54:48",30,0,1,0,"America/New_York","2017-03-08","2017-03-07 02:40:44","2017-07-01 08:06:12"
77551332,"a04A000000uJZvgIAG",4,3,1605,1946783,"2017-03-21 01:22:13",30,0,1,0,"America/New_York","2017-03-21","2017-03-22 02:02:57","2017-07-01 08:06:12"
86094494,"a04A000000uehyTIAQ",4,3,1605,1946782,"2017-04-05 01:51:13",30,0,1,0,"America/New_York","2017-04-05","2017-04-06 02:40:59","2017-07-01 08:06:12"
103070343,"a04A000000uusIqIAI",4,3,1605,1946783,"2017-04-25 01:07:41",30,0,1,0,"America/New_York","2017-04-25","2017-04-20 01:01:04","2017-07-01 08:06:12"
117646752,"a04A000000v7IBxIAM",4,3,1605,1946782,"2017-05-03 07:03:13",30,0,1,0,"America/New_York","2017-05-03","2017-05-04 00:19:07","2017-07-01 08:06:12"
124751106,"a04A000000vO603IAC",4,3,1605,1946782,"2017-05-17 17:05:00",30,0,1,0,"America/New_York","2017-05-17","2017-05-17 23:22:44","2017-07-18 11:54:00"
129074045,"a04A000000vhFDCIA2",4,3,1605,1946783,"2017-05-31 13:49:54",30,0,1,0,"America/New_York","2017-05-31","2017-05-30 22:49:28","2017-07-18 11:54:00"
137807766,"a04A000000vqQ2xIAE",4,3,1605,538573,"2017-06-07 01:30:00",30,0,0,1,"America/New_York","2017-06-07","2017-06-08 03:16:25","2017-06-13 00:59:15"
147085868,"a04A000000vu2zHIAQ",4,3,1605,1946782,"2017-06-13 12:55:31",30,0,1,0,"America/New_York","2017-06-13","2017-06-14 00:39:07","2017-07-01 08:06:12"
176719725,"a04A000000wQBEQIA4",4,3,1605,1946783,"2017-07-11 14:53:25",30,0,1,0,"America/New_York","2017-07-11","2017-07-11 23:35:20","2017-07-18 11:54:00"
183553653,"a04A000000wcehLIAQ",4,3,1605,1946782,"2017-07-18 13:13:45",30,0,1,0,"America/New_York","2017-07-18","2017-07-19 02:34:54","2017-07-19 02:34:54"
190758825,"a04A000000wl7v3IAA",4,3,1605,1946782,"2017-07-28 15:30:00",30,0,0,1,"America/New_York","2017-07-28","2017-07-26 01:25:34","2017-07-31 23:26:37"
196393599,"a04A000000x2pFQIAY",4,3,1605,1946782,"2017-08-02 18:23:00",30,0,1,0,"America/New_York","2017-08-02","2017-08-02 23:38:53","2017-08-02 23:38:53"
199599924,"a04A000000x6NNmIAM",4,3,1605,1946782,"2017-08-09 13:00:00",30,0,0,1,"America/New_York","2017-08-09","2017-08-10 01:32:03","2017-08-12 01:05:44"
201040749,"a04A000000xAWvIIAW",4,3,1605,1946782,"2017-08-16 19:00:00",30,0,1,0,"America/New_York","2017-08-16","2017-08-17 07:14:10","2017-08-17 07:14:10"
202155851,"a04A000000xIMw9IAG",4,3,1605,1946783,"2017-08-24 14:10:50",30,0,1,0,"America/New_York","2017-08-24","2017-08-25 01:19:56","2017-08-25 01:19:56"
204120062,"a04A000000xiYlDIAU",4,3,1605,1946783,"2017-09-08 16:30:00",30,0,0,1,"America/New_York","2017-09-08","2017-09-08 01:33:33","2017-09-09 02:34:38"
205544264,"a04A000000xquLmIAI",4,3,1605,1946782,"2017-09-14 14:14:51",30,0,1,0,"America/New_York","2017-09-14","2017-09-15 01:35:16","2017-09-15 01:35:16"
206115260,"a04A000000xuMTeIAM",4,3,1605,1946782,"2017-09-21 16:30:00",30,0,0,1,"America/New_York","2017-09-21","2017-09-20 05:39:32","2017-09-22 01:40:33"
206143973,"a05A000000ZeC88IAF",11,12,1605,NA,"2017-09-20 19:30:00",0,0,1,0,"America/New_York","2017-09-20","2017-09-21 02:53:06","2017-09-21 02:53:06"
206251362,"a04A000000xuuIrIAI",4,3,1605,1946782,"2017-09-20 19:30:00",30,0,1,0,"America/New_York","2017-09-20","2017-09-21 02:54:43","2017-09-21 02:54:43"
209184632,"a04A000000yCkqSIAS",4,3,1605,1946782,"2017-10-06 14:00:00",30,0,0,1,"America/New_York","2017-10-06","2017-10-06 00:31:51","2017-10-07 02:34:54"
209184638,"a04A000000yCtOYIA0",4,3,1605,1946783,"2017-10-05 15:56:53",30,0,1,0,"America/New_York","2017-10-05","2017-10-06 00:31:51","2017-10-06 00:31:51"
211136987,"a04A000000yOFg0IAG",4,3,1605,1946782,"2017-10-18 17:12:42",30,0,1,0,"America/New_York","2017-10-18","2017-10-18 02:48:34","2017-10-19 02:50:00"
213827921,"a05A000000aHT8xIAG",11,12,1605,NA,"2017-11-01 18:24:18",0,0,1,0,"America/New_York","2017-11-01","2017-11-02 01:34:08","2017-11-02 01:34:08"
213930422,"a04A000000ytkJnIAI",4,3,1605,1946782,"2017-11-01 18:24:18",30,0,1,0,"America/New_York","2017-11-01","2017-11-02 01:37:30","2017-11-02 01:37:30"
214326445,"a04A000000z0ASAIA2",4,3,1605,1946782,"2017-11-03 22:00:00",30,0,0,1,"America/New_York","2017-11-03","2017-11-04 01:35:45","2017-11-04 05:44:24"
