year,month,repUID,repName,repTeamUID,repTeamName,seConfigId,seConfigName,suggestionType,territoryId,territoryName,engagedUniqueSuggestionsCount,totalSuggestionsDeliveredTimes,createdAt,updatedAt
2018,1,"g","Rep7","A","A",1,"a","Target",1,"territoryA",1,2,2020-02-07 13:51:00,2020-02-07 13:51:00
2018,1,"g","Rep7","A","A",1,"a","Trigger",1,"territoryA",1,"1",2020-02-07 13:51:00,2020-02-07 13:51:00
2018,1,"h","Rep8","A","A",1,"a","Target",1,"territoryA",1,"1",2020-02-07 13:51:00,2020-02-07 13:51:00
2018,1,"h","Rep8","A","A",1,"a","Trigger",1,"territoryA",2,2,2020-02-07 13:51:00,2020-02-07 13:51:00
2018,1,"e","Rep5","A","A",1,"a","Target",1,"territoryA",2,2,2020-02-07 13:51:00,2020-02-07 13:51:00
2018,1,"e","Rep5","A","A",1,"a","Trigger",1,"territoryA",0,1,2020-02-07 13:51:00,2020-02-07 13:51:00
2018,1,"f","Rep6","A","A",1,"a","Trigger",1,"territoryA",2,2,2020-02-07 13:51:00,2020-02-07 13:51:00
2018,1,"f","Rep6","A","A",1,"a","Target",1,"territoryA",1,"1",2020-02-07 13:51:00,2020-02-07 13:51:00
2018,1,"b","Rep2","A","A",1,"a","Trigger",1,"territoryA",2,2,2020-02-07 13:51:00,2020-02-07 13:51:00
2018,1,"b","Rep2","A","A",1,"a","Target",1,"territoryA",0,1,2020-02-07 13:51:00,2020-02-07 13:51:00
2018,1,"c","Rep3","A","A",1,"a","Target",1,"territoryA",0,2,2020-02-07 13:51:00,2020-02-07 13:51:00
2018,1,"a","Rep1","A","A",1,"a","Target",1,"territoryA",0,2,2020-02-07 13:51:00,2020-02-07 13:51:00
2018,1,"c","Rep3","A","A",1,"a","Trigger",1,"territoryA",1,"1",2020-02-07 13:51:00,2020-02-07 13:51:00
2018,1,"d","Rep4","A","A",1,"a","Trigger",1,"territoryA",2,2,2020-02-07 13:51:00,2020-02-07 13:51:00
2018,1,"d","Rep4","A","A",1,"a","Target",1,"territoryA",0,1,2020-02-07 13:51:00,2020-02-07 13:51:00
2018,1,"a","Rep1","A","A",1,"a","Trigger",1,"territoryA",1,"1",2020-02-07 13:51:00,2020-02-07 13:51:00
2018,1,"i","Rep9","A","A",1,"a","Target",1,"territoryA",2,2,2020-02-07 13:51:00,2020-02-07 13:51:00
2018,1,"j","Rep10","A","A",1,"a","Target",1,"territoryA",1,"1",2020-02-07 13:51:00,2020-02-07 13:51:00
2018,1,"i","Rep9","A","A",1,"a","Trigger",1,"territoryA",1,"1",2020-02-07 13:51:00,2020-02-07 13:51:00
2018,1,"j","Rep10","A","A",1,"a","Trigger",1,"territoryA",2,2,2020-02-07 13:51:00,2020-02-07 13:51:00

2020,1,"g","Rep7","A","A",1,"a","Target",1,"territoryA",1,2,2020-01-07 13:51:00,2020-01-07 13:51:00
2020,1,"h","Rep8","A","A",1,"a","Target",1,"territoryA",1,"1",2020-01-07 13:51:00,2020-01-07 13:51:00
2020,1,"e","Rep5","A","A",1,"a","Target",1,"territoryA",2,2,2020-01-07 13:51:00,2020-01-07 13:51:00
2019,12,"f","Rep6","A","A",1,"a","Trigger",1,"territoryA",2,2,2019-12-07 13:51:00,2019-12-07 13:51:00
2019,12,"b","Rep2","A","A",1,"a","Trigger",1,"territoryA",2,2,2019-12-07 13:51:00,2019-12-07 13:51:00
2019,12,"c","Rep3","A","A",1,"a","Target",1,"territoryA",0,2,2019-12-07 13:51:00,2019-12-07 13:51:00
2019,11,"a","Rep1","A","A",1,"a","Target",1,"territoryA",0,2,2019-11-07 13:51:00,2019-11-07 13:51:00
2019,11,"d","Rep4","A","A",1,"a","Target",1,"territoryA",0,1,2019-11-07 13:51:00,2019-11-07 13:51:00
2019,11,"i","Rep9","A","A",1,"a","Target",1,"territoryA",2,2,2019-11-07 13:51:00,2019-11-07 13:51:00
2019,11,"j","Rep10","A","A",1,"a","Trigger",1,"territoryA",2,2,2019-11-07 13:51:00,2019-11-07 13:51:00
