{"cluster": "a", "districtName": "", "repName": "Rep1", "territoryName": "territoryA", "territoryId": 1, "externalId": "a", "customerId": "", "regionName": "", "activatedDate": "", "isActivated": "", "createdAt": "", "updatedAt": "", "repRole": "", "repBag": "", "seConfigId": "", "testRunGroupId": "", "RunGroupId": "", "dmName": "", "dmUID": "", "startDate": "2018-01-01T12:00:01.000-08:00", "endDate": "2030-01-01T12:00:01.000-08:00"}
{"cluster": "a", "districtName": "", "repName": "Rep2", "territoryName": "territoryA", "territoryId": 1, "externalId": "b", "customerId": "", "regionName": "", "activatedDate": "", "isActivated": "", "createdAt": "", "updatedAt": "", "repRole": "", "repBag": "", "seConfigId": "", "testRunGroupId": "", "RunGroupId": "", "dmName": "", "dmUID": "", "startDate": "2018-01-01T12:00:01.000-08:00", "endDate": "2030-01-01T12:00:01.000-08:00"}
{"cluster": "a", "districtName": "", "repName": "Rep3", "territoryName": "territoryA", "territoryId": 1, "externalId": "c", "customerId": "", "regionName": "", "activatedDate": "", "isActivated": "", "createdAt": "", "updatedAt": "", "repRole": "", "repBag": "", "seConfigId": "", "testRunGroupId": "", "RunGroupId": "", "dmName": "", "dmUID": "", "startDate": "2018-01-01T12:00:01.000-08:00", "endDate": "2030-01-01T12:00:01.000-08:00"}
{"cluster": "a", "districtName": "", "repName": "Rep4", "territoryName": "territoryA", "territoryId": 1, "externalId": "d", "customerId": "", "regionName": "", "activatedDate": "", "isActivated": "", "createdAt": "", "updatedAt": "", "repRole": "", "repBag": "", "seConfigId": "", "testRunGroupId": "", "RunGroupId": "", "dmName": "", "dmUID": "", "startDate": "2018-01-01T12:00:01.000-08:00", "endDate": "2030-01-01T12:00:01.000-08:00"}
{"cluster": "a", "districtName": "", "repName": "Rep5", "territoryName": "territoryA", "territoryId": 1, "externalId": "e", "customerId": "", "regionName": "", "activatedDate": "", "isActivated": "", "createdAt": "", "updatedAt": "", "repRole": "", "repBag": "", "seConfigId": "", "testRunGroupId": "", "RunGroupId": "", "dmName": "", "dmUID": "", "startDate": "2018-01-01T12:00:01.000-08:00", "endDate": "2030-01-01T12:00:01.000-08:00"}
{"cluster": "a", "districtName": "", "repName": "Rep6", "territoryName": "territoryA", "territoryId": 1, "externalId": "f", "customerId": "", "regionName": "", "activatedDate": "", "isActivated": "", "createdAt": "", "updatedAt": "", "repRole": "", "repBag": "", "seConfigId": "", "testRunGroupId": "", "RunGroupId": "", "dmName": "", "dmUID": "", "startDate": "2018-01-01T12:00:01.000-08:00", "endDate": "2030-01-01T12:00:01.000-08:00"}
{"cluster": "a", "districtName": "", "repName": "Rep7", "territoryName": "territoryA", "territoryId": 1, "externalId": "g", "customerId": "", "regionName": "", "activatedDate": "", "isActivated": "", "createdAt": "", "updatedAt": "", "repRole": "", "repBag": "", "seConfigId": "", "testRunGroupId": "", "RunGroupId": "", "dmName": "", "dmUID": "", "startDate": "2018-01-01T12:00:01.000-08:00", "endDate": "2030-01-01T12:00:01.000-08:00"}
{"cluster": "a", "districtName": "", "repName": "Rep8", "territoryName": "territoryA", "territoryId": 1, "externalId": "h", "customerId": "", "regionName": "", "activatedDate": "", "isActivated": "", "createdAt": "", "updatedAt": "", "repRole": "", "repBag": "", "seConfigId": "", "testRunGroupId": "", "RunGroupId": "", "dmName": "", "dmUID": "", "startDate": "2018-01-01T12:00:01.000-08:00", "endDate": "2030-01-01T12:00:01.000-08:00"}
{"cluster": "a", "districtName": "", "repName": "Rep9", "territoryName": "territoryA", "territoryId": 1, "externalId": "i", "customerId": "", "regionName": "", "activatedDate": "", "isActivated": "", "createdAt": "", "updatedAt": "", "repRole": "", "repBag": "", "seConfigId": "", "testRunGroupId": "", "RunGroupId": "", "dmName": "", "dmUID": "", "startDate": "2018-01-01T12:00:01.000-08:00", "endDate": "2030-01-01T12:00:01.000-08:00"}
{"cluster": "a", "districtName": "", "repName": "Rep10", "territoryName": "territoryA", "territoryId": 1, "externalId": "j", "customerId": "", "regionName": "", "activatedDate": "", "isActivated": "", "createdAt": "", "updatedAt": "", "repRole": "", "repBag": "", "seConfigId": "", "testRunGroupId": "", "RunGroupId": "", "dmName": "", "dmUID": "", "startDate": "2018-01-01T12:00:01.000-08:00", "endDate": "2030-01-01T12:00:01.000-08:00"}
